  {
    "photo": [
      {
        "img": "news\\photo\\jane-dou@mail.ru\\BMW.jpg",
        "author": "jane-dou@mail.ru",
        "header": null,
        "miniHeader": null,
        "mainNews": null,
        "mainNewsInCategory": null,
        "secondMainNewsInCategory": null,
        "headerInCategory": null,
        "miniHeaderInCategory": null,
        "newsInfo": [
          {
            "publicationDate": "2018-04-04 20:01:00",
            "author": "jane-dou@mail.ru"
          }
        ]
      },
      {
        "img": "news\\photo\\jane-dou@mail.ru\\person.jpg",
        "author": "jane-dou@mail.ru",
        "newsInfo": [
          {
            "publicationDate": "2018-04-04 19:01:00",
            "author": "jane-dou@mail.ru"
          }
        ] 
      }
    ],
    "video": [
      {
        "author": "jane-dou@mail.ru",
        "video": "news\\photo\\jane-dou@mail.ru\\бмвГорит.mp4",
        "newsInfo": [
          {
            "publicationDate": "2018-04-04 20:01:00",
            "author": "jane-dou@mail.ru"
          }
        ]
      }
    ]
  }
